{
  "channel": "mychannel",
  "eventWaitTime": "30000",
  "host": "localhost",
  "keyValueStore": "/tmp/fabric-client-kvs",
  "license": "Apache-2.0",
  "network-config": {
    "org1": {
      "admin": {
        "cert": "/etc/hyperledger/msp/users/Admin@org1.example.com/msp/signcerts",
        "key": "/etc/hyperledger/msp/users/Admin@org1.example.com/msp/keystore"
      },
      "mspid": "Org1MSP",
      "name": "Org1MSP",
      "peer1": {
        "events": "grpc://peer0.org1.example.com:7053",
        "requests": "grpc://peer0.org1.example.com:7051",
        "server-hostname": "peer0.org1.example.com",
        "tls_cacerts": "/etc/hyperledger/msp/peers/peer0.org1.example.com/tls/ca.crt"
      }
    }
  },
  "pg": {
    "database": "fabricexplorer",
    "host": "postgres",
    "passwd": "password",
    "port": "5432",
    "username": "hppoc"
  },
  "port": "3000",
  "users": [
    {
      "secret": "adminpw",
      "username": "admin"
    }
  ]
}
